%YAML 1.1
%TAG !u! tag:unity3d.com,2011:
--- !u!114 &11400000
MonoBehaviour:
  m_ObjectHideFlags: 0
  m_CorrespondingSourceObject: {fileID: 0}
  m_PrefabInstance: {fileID: 0}
  m_PrefabAsset: {fileID: 0}
  m_GameObject: {fileID: 0}
  m_Enabled: 1
  m_EditorHideFlags: 0
  m_Script: {fileID: 11500000, guid: e95750f108e433543aef0099027763ad, type: 3}
  m_Name: krystof-starobrno-finished-first
  m_EditorClassIdentifier: 
  entryLines:
  - text: "Starobrno? Sp\xED\u0161 Staro-bylo. Ha h\xE1!"
    speakerName: "Ky\u0161tof"
    portrait: {fileID: 21300000, guid: acbefb7de517d05429e8f76e1b6e54a5, type: 3}
    audio: {fileID: 0}
  - text: ...
    speakerName: Branice
    portrait: {fileID: 21300000, guid: 669aaa38aa0f8f244aa3ca8c5d6b8375, type: 3}
    audio: {fileID: 0}
  - text: Ehm.
    speakerName: "Ky\u0161tof"
    portrait: {fileID: 21300000, guid: acbefb7de517d05429e8f76e1b6e54a5, type: 3}
    audio: {fileID: 0}
  - text: "Dob\u0159e no.. ten nebyl zrovna nejlep\u0161\xED, Poj\u010F mus\xEDme
      zaj\xEDt je\u0161t\u011B do Staropramenu."
    speakerName: "Ky\u0161tof"
    portrait: {fileID: 21300000, guid: acbefb7de517d05429e8f76e1b6e54a5, type: 3}
    audio: {fileID: 0}
  choices: []
