%YAML 1.1
%TAG !u! tag:unity3d.com,2011:
--- !u!78 &1
TagManager:
  serializedVersion: 2
  tags:
  - GameState
  layers:
  - Default
  - TransparentFX
  - Ignore Raycast
  - 
  - Water
  - UI
  - Player
  - Enemy
  - 
  - 
  - 
  - 
  - 
  - 
  - 
  - 
  - 
  - 
  - 
  - 
  - 
  - 
  - 
  - 
  - 
  - 
  - 
  - 
  - 
  - 
  - 
  - 
  m_SortingLayers:
  - name: ParalaxBackground
    uniqueID: 1187824147
    locked: 0
  - name: Background
    uniqueID: 3943527921
    locked: 0
  - name: Default
    uniqueID: 0
    locked: 0
  - name: Foreground
    uniqueID: 2248251
    locked: 0
