%YAML 1.1
%TAG !u! tag:unity3d.com,2011:
--- !u!114 &11400000
MonoBehaviour:
  m_ObjectHideFlags: 0
  m_CorrespondingSourceObject: {fileID: 0}
  m_PrefabInstance: {fileID: 0}
  m_PrefabAsset: {fileID: 0}
  m_GameObject: {fileID: 0}
  m_Enabled: 1
  m_EditorHideFlags: 0
  m_Script: {fileID: 11500000, guid: e95750f108e433543aef0099027763ad, type: 3}
  m_Name: plzen-lift-enc1 1
  m_EditorClassIdentifier: 
  entryLines:
  - text: 
    speakerName: Branice
    portrait: {fileID: 21300000, guid: 669aaa38aa0f8f244aa3ca8c5d6b8375, type: 3}
    audio: {fileID: 0}
  choices: []
