%YAML 1.1
%TAG !u! tag:unity3d.com,2011:
--- !u!114 &11400000
MonoBehaviour:
  m_ObjectHideFlags: 0
  m_CorrespondingSourceObject: {fileID: 0}
  m_PrefabInstance: {fileID: 0}
  m_PrefabAsset: {fileID: 0}
  m_GameObject: {fileID: 0}
  m_Enabled: 1
  m_EditorHideFlags: 0
  m_Script: {fileID: 11500000, guid: e95750f108e433543aef0099027763ad, type: 3}
  m_Name: bartender-relaxing
  m_EditorClassIdentifier: 
  entryLines:
  - text: "\u010Clov\u011Bk si n\u011Bkdy pot\u0159ebuje odpo\u010Dinout."
    speakerName: "Hospodsk\xFD Honza"
    portrait: {fileID: 21300000, guid: 3dd3e46f7e4d2e643acd110b2782cbd6, type: 3}
    audio: {fileID: 0}
  choices: []
